…
# renombramos columnas en pra1
pra1 <- pra1 %>%  rename(entity_global_gdp = entity_region)
pra1 <- pra1 %>%  rename(gdp_global = gdp_index_region)

# Eliminamos lo que no necesitamos en la tabla 'pra1':
pra1 <- select(pra1, -matches("_region"))

# Nos quedamos con lo que necesitamos en la tabla 'region_data_gdp':
region_data_gdp <- select(region_data_gdp, entity, code, year, gdp_index)

# visualizamos la tabla pra1
print(pra1)
```

    ## # A tibble: 1,630 × 35
    ## # Groups:   code [275]
    ##    entity          code   year gdp_index imf_index uhc_index bci_index ilo_index
    ##    <chr>           <chr> <int>     <dbl>     <dbl>     <dbl>     <dbl>     <dbl>
    ##  1 Aruba           ABW    2015     5.13      NaN         NaN       NaN       NaN
    ##  2 Aruba           ABW    2016     1.59      NaN         NaN       NaN       NaN
    ##  3 Aruba           ABW    2017     1.52      NaN         NaN       NaN       NaN
    ##  4 Aruba           ABW    2018     0.686     NaN         NaN       NaN       NaN
    ##  5 Aruba           ABW    2019    -0.130     NaN         NaN       NaN       NaN
    ##  6 Aruba           ABW    2020    -7.57      NaN         NaN       NaN       NaN
    ##  7 Europe and Cen… ACS    2015     1.63       36.1       NaN       NaN       NaN
    ##  8 Europe and Cen… ACS    2016     1.50       35.8       NaN       NaN       NaN
    ##  9 Europe and Cen… ACS    2017     2.40       35.3       NaN       NaN       NaN
    ## 10 Europe and Cen… ACS    2018     1.79       34.9       NaN       NaN       NaN
    ## # ℹ 1,620 more rows
    ## # ℹ 27 more variables: phy_index <dbl>, u_1 <int>, u_5 <int>, u_15 <int>,
    ## #   u_25 <int>, btn_15_64 <int>, old_15 <int>, old_18 <int>, at_1 <int>,
    ## #   btn_1_4 <int>, btn_5_9 <int>, btn_10_14 <int>, btn_15_19 <int>,
    ## #   btn_20_29 <int>, btn_30_39 <int>, btn_40_49 <int>, btn_50_59 <int>,
    ## #   btn_60_69 <int>, btn_70_79 <int>, btn_80_89 <int>, btn_90_99 <int>,
    ## #   old_100 <int>, population <int>, region <chr>, region_gdp <chr>, …
…
``` r
#visualizamos la tabla region_data_gdp
print(region_data_gdp)
```

    ## # A tibble: 36 × 4
    ## # Groups:   code [6]
    ##    entity                  code   year gdp_index
    ##    <chr>                   <chr> <int>     <dbl>
    ##  1 Europe and Central Asia ACS    2015      1.63
    ##  2 Europe and Central Asia ACS    2016      1.50
    ##  3 Europe and Central Asia ACS    2017      2.40
    ##  4 Europe and Central Asia ACS    2018      1.79
    ##  5 Europe and Central Asia ACS    2019      1.50
    ##  6 Europe and Central Asia ACS    2020     -5.82
    ##  7 East Asia and Pacific   EAP    2015      3.96
    ##  8 East Asia and Pacific   EAP    2016      3.93
    ##  9 East Asia and Pacific   EAP    2017      4.31
    ## 10 East Asia and Pacific   EAP    2018      4.09
    ## # ℹ 26 more rows
…
# Aplicamos la función a cada grupo de 'code'
pra1 <- pra1 %>%
  arrange(code, year) %>% # organizamos por code y year
  group_by(code) %>% # agrupamos por code
  mutate(imf_index = impute_with_mean(imf_index)) # imputa por la media si esta disponible segun los parametros de la funcion

# visualizamos la tabla:
print(pra1)
```

    ## # A tibble: 1,630 × 35
    ## # Groups:   code [275]
    ##    entity          code   year gdp_index imf_index uhc_index bci_index ilo_index
    ##    <chr>           <chr> <int>     <dbl>     <dbl>     <dbl>     <dbl>     <dbl>
    ##  1 Aruba           ABW    2015     5.13      NaN         NaN       NaN       NaN
    ##  2 Aruba           ABW    2016     1.59      NaN         NaN       NaN       NaN
    ##  3 Aruba           ABW    2017     1.52      NaN         NaN       NaN       NaN
    ##  4 Aruba           ABW    2018     0.686     NaN         NaN       NaN       NaN
    ##  5 Aruba           ABW    2019    -0.130     NaN         NaN       NaN       NaN
    ##  6 Aruba           ABW    2020    -7.57      NaN         NaN       NaN       NaN
    ##  7 Europe and Cen… ACS    2015     1.63       36.1       NaN       NaN       NaN
    ##  8 Europe and Cen… ACS    2016     1.50       35.8       NaN       NaN       NaN
    ##  9 Europe and Cen… ACS    2017     2.40       35.3       NaN       NaN       NaN
    ## 10 Europe and Cen… ACS    2018     1.79       34.9       NaN       NaN       NaN
    ## # ℹ 1,620 more rows
    ## # ℹ 27 more variables: phy_index <dbl>, u_1 <int>, u_5 <int>, u_15 <int>,
    ## #   u_25 <int>, btn_15_64 <int>, old_15 <int>, old_18 <int>, at_1 <int>,
    ## #   btn_1_4 <int>, btn_5_9 <int>, btn_10_14 <int>, btn_15_19 <int>,
    ## #   btn_20_29 <int>, btn_30_39 <int>, btn_40_49 <int>, btn_50_59 <int>,
    ## #   btn_60_69 <int>, btn_70_79 <int>, btn_80_89 <int>, btn_90_99 <int>,
    ## #   old_100 <int>, population <int>, region <chr>, region_gdp <chr>, …
…
# renombramos columnas en pra1
pra1 <- pra1 %>%  rename(entity_global_imf = entity_region)
pra1 <- pra1 %>%  rename(imf_global = imf_index_region)

# Eliminamos lo que no necesitamos en la tabla 'pra1':
pra1 <- select(pra1, -matches("_region"))

# Nos quedamos con lo que necesitamos en la tabla 'region_data_imf':
region_data_imf <- select(region_data_imf, entity, code, year, imf_index)

# visualizamos la tabla pra1
print(pra1)
```

    ## # A tibble: 1,630 × 38
    ## # Groups:   code [275]
    ##    entity          code   year gdp_index imf_index uhc_index bci_index ilo_index
    ##    <chr>           <chr> <int>     <dbl>     <dbl>     <dbl>     <dbl>     <dbl>
    ##  1 Aruba           ABW    2015     5.13       28.5       NaN       NaN       NaN
    ##  2 Aruba           ABW    2016     1.59       28.5       NaN       NaN       NaN
    ##  3 Aruba           ABW    2017     1.52       27.9       NaN       NaN       NaN
    ##  4 Aruba           ABW    2018     0.686      27.7       NaN       NaN       NaN
    ##  5 Aruba           ABW    2019    -0.130      27.5       NaN       NaN       NaN
    ##  6 Aruba           ABW    2020    -7.57       28.0       NaN       NaN       NaN
    ##  7 Europe and Cen… ACS    2015     1.63       36.1       NaN       NaN       NaN
    ##  8 Europe and Cen… ACS    2016     1.50       35.8       NaN       NaN       NaN
    ##  9 Europe and Cen… ACS    2017     2.40       35.3       NaN       NaN       NaN
    ## 10 Europe and Cen… ACS    2018     1.79       34.9       NaN       NaN       NaN
    ## # ℹ 1,620 more rows
    ## # ℹ 30 more variables: phy_index <dbl>, u_1 <int>, u_5 <int>, u_15 <int>,
    ## #   u_25 <int>, btn_15_64 <int>, old_15 <int>, old_18 <int>, at_1 <int>,
    ## #   btn_1_4 <int>, btn_5_9 <int>, btn_10_14 <int>, btn_15_19 <int>,
    ## #   btn_20_29 <int>, btn_30_39 <int>, btn_40_49 <int>, btn_50_59 <int>,
    ## #   btn_60_69 <int>, btn_70_79 <int>, btn_80_89 <int>, btn_90_99 <int>,
    ## #   old_100 <int>, population <int>, region <chr>, region_gdp <chr>, …
…
``` r
#visualizamos la tabla region_data_gdp
print(region_data_imf)
```

    ## # A tibble: 36 × 4
    ## # Groups:   code [6]
    ##    entity                  code   year imf_index
    ##    <chr>                   <chr> <int>     <dbl>
    ##  1 Europe and Central Asia ACS    2015      36.1
    ##  2 Europe and Central Asia ACS    2016      35.8
    ##  3 Europe and Central Asia ACS    2017      35.3
    ##  4 Europe and Central Asia ACS    2018      34.9
    ##  5 Europe and Central Asia ACS    2019      35.0
    ##  6 Europe and Central Asia ACS    2020      35.4
    ##  7 European Union          EU     2015      38.4
    ##  8 European Union          EU     2016      37.9
    ##  9 European Union          EU     2017      37.0
    ## 10 European Union          EU     2018      36.7
    ## # ℹ 26 more rows
…
# renombramos columnas en pra1
pra1 <- pra1 %>%  rename(entity_global_uhc = entity_region)
pra1 <- pra1 %>%  rename(uhc_global = uhc_index_region)

# Eliminamos lo que no necesitamos en la tabla 'pra1':
pra1 <- select(pra1, -matches("_region"))

# Nos quedamos con lo que necesitamos en la tabla 'region_data_uhc':
region_data_uhc <- select(region_data_uhc, entity, code, year, uhc_index)

# visualizamos la tabla pra1
print(pra1)
```

    ## # A tibble: 1,630 × 41
    ## # Groups:   code [275]
    ##    entity          code   year gdp_index imf_index uhc_index bci_index ilo_index
    ##    <chr>           <chr> <int>     <dbl>     <dbl>     <dbl>     <dbl>     <dbl>
    ##  1 Aruba           ABW    2015     5.13       28.5      NA         NaN       NaN
    ##  2 Aruba           ABW    2016     1.59       28.5      40.8       NaN       NaN
    ##  3 Aruba           ABW    2017     1.52       27.9      NA         NaN       NaN
    ##  4 Aruba           ABW    2018     0.686      27.7      40.8       NaN       NaN
    ##  5 Aruba           ABW    2019    -0.130      27.5      NA         NaN       NaN
    ##  6 Aruba           ABW    2020    -7.57       28.0      40.8       NaN       NaN
    ##  7 Europe and Cen… ACS    2015     1.63       36.1      NA         NaN       NaN
    ##  8 Europe and Cen… ACS    2016     1.50       35.8      NA         NaN       NaN
    ##  9 Europe and Cen… ACS    2017     2.40       35.3      NA         NaN       NaN
    ## 10 Europe and Cen… ACS    2018     1.79       34.9      NA         NaN       NaN
    ## # ℹ 1,620 more rows
    ## # ℹ 33 more variables: phy_index <dbl>, u_1 <int>, u_5 <int>, u_15 <int>,
    ## #   u_25 <int>, btn_15_64 <int>, old_15 <int>, old_18 <int>, at_1 <int>,
    ## #   btn_1_4 <int>, btn_5_9 <int>, btn_10_14 <int>, btn_15_19 <int>,
    ## #   btn_20_29 <int>, btn_30_39 <int>, btn_40_49 <int>, btn_50_59 <int>,
    ## #   btn_60_69 <int>, btn_70_79 <int>, btn_80_89 <int>, btn_90_99 <int>,
    ## #   old_100 <int>, population <int>, region <chr>, region_gdp <chr>, …
…
``` r
#visualizamos la tabla region_data_gdp
print(region_data_uhc)
```

    ## # A tibble: 48 × 4
    ## # Groups:   code [8]
    ##    entity      code   year uhc_index
    ##    <chr>       <chr> <int>     <dbl>
    ##  1 Africa      AFR    2015      NA  
    ##  2 Africa (UN) AFR    2016      47.0
    ##  3 Africa      AFR    2017      NA  
    ##  4 Africa (UN) AFR    2018      47.0
    ##  5 Africa      AFR    2019      NA  
    ##  6 Africa (UN) AFR    2020      47.0
    ##  7 Asia        ASI    2015      NA  
    ##  8 Asia (UN)   ASI    2016      65.9
    ##  9 Asia        ASI    2017      NA  
    ## 10 Asia (UN)   ASI    2018      65.9
    ## # ℹ 38 more rows
…
# Aplicamos la función a cada grupo de 'code' en region_data_uhc
region_data_uhc <- region_data_uhc %>%
  arrange(code, year) %>% # organizamos por code y year
  group_by(code) %>% # agrupamos por code
  mutate(uhc_index = impute_with_mean(uhc_index)) # imputa por la media si esta disponible segun los parametros de la funcion


# visualizamos la tabla:
print(pra1)
```

    ## # A tibble: 1,630 × 41
    ## # Groups:   code [275]
    ##    entity          code   year gdp_index imf_index uhc_index bci_index ilo_index
    ##    <chr>           <chr> <int>     <dbl>     <dbl>     <dbl>     <dbl>     <dbl>
    ##  1 Aruba           ABW    2015     5.13       28.5      40.8       NaN       NaN
    ##  2 Aruba           ABW    2016     1.59       28.5      40.8       NaN       NaN
    ##  3 Aruba           ABW    2017     1.52       27.9      40.8       NaN       NaN
    ##  4 Aruba           ABW    2018     0.686      27.7      40.8       NaN       NaN
    ##  5 Aruba           ABW    2019    -0.130      27.5      40.8       NaN       NaN
    ##  6 Aruba           ABW    2020    -7.57       28.0      40.8       NaN       NaN
    ##  7 Europe and Cen… ACS    2015     1.63       36.1     NaN         NaN       NaN
    ##  8 Europe and Cen… ACS    2016     1.50       35.8     NaN         NaN       NaN
    ##  9 Europe and Cen… ACS    2017     2.40       35.3     NaN         NaN       NaN
    ## 10 Europe and Cen… ACS    2018     1.79       34.9     NaN         NaN       NaN
    ## # ℹ 1,620 more rows
    ## # ℹ 33 more variables: phy_index <dbl>, u_1 <int>, u_5 <int>, u_15 <int>,
    ## #   u_25 <int>, btn_15_64 <int>, old_15 <int>, old_18 <int>, at_1 <int>,
    ## #   btn_1_4 <int>, btn_5_9 <int>, btn_10_14 <int>, btn_15_19 <int>,
    ## #   btn_20_29 <int>, btn_30_39 <int>, btn_40_49 <int>, btn_50_59 <int>,
    ## #   btn_60_69 <int>, btn_70_79 <int>, btn_80_89 <int>, btn_90_99 <int>,
    ## #   old_100 <int>, population <int>, region <chr>, region_gdp <chr>, …
…
The business confidence index can be an indicator of whether the right
conditions exist to invest in a country.

``` r
# Aplicamos la función a cada grupo de 'code'
pra1 <- pra1 %>%
  arrange(code, year) %>% # organizamos por code y year
  group_by(code) %>% # agrupamos por code
  mutate(bci_index = impute_with_mean(bci_index)) # imputa por la media si esta disponible segun los parametros de la funcion

# visualizamos la tabla:
print(pra1)
```

    ## # A tibble: 1,630 × 40
    ## # Groups:   code [275]
    ##    entity          code   year gdp_index imf_index uhc_index bci_index ilo_index
    ##    <chr>           <chr> <int>     <dbl>     <dbl>     <dbl>     <dbl>     <dbl>
    ##  1 Aruba           ABW    2015     5.13       28.5      40.8       NaN       NaN
    ##  2 Aruba           ABW    2016     1.59       28.5      40.8       NaN       NaN
    ##  3 Aruba           ABW    2017     1.52       27.9      40.8       NaN       NaN
    ##  4 Aruba           ABW    2018     0.686      27.7      40.8       NaN       NaN
    ##  5 Aruba           ABW    2019    -0.130      27.5      40.8       NaN       NaN
    ##  6 Aruba           ABW    2020    -7.57       28.0      40.8       NaN       NaN
    ##  7 Europe and Cen… ACS    2015     1.63       36.1     NaN         NaN       NaN
    ##  8 Europe and Cen… ACS    2016     1.50       35.8     NaN         NaN       NaN
    ##  9 Europe and Cen… ACS    2017     2.40       35.3     NaN         NaN       NaN
    ## 10 Europe and Cen… ACS    2018     1.79       34.9     NaN         NaN       NaN
    ## # ℹ 1,620 more rows
    ## # ℹ 32 more variables: phy_index <dbl>, u_1 <int>, u_5 <int>, u_15 <int>,
    ## #   u_25 <int>, btn_15_64 <int>, old_15 <int>, old_18 <int>, at_1 <int>,
    ## #   btn_1_4 <int>, btn_5_9 <int>, btn_10_14 <int>, btn_15_19 <int>,
    ## #   btn_20_29 <int>, btn_30_39 <int>, btn_40_49 <int>, btn_50_59 <int>,
    ## #   btn_60_69 <int>, btn_70_79 <int>, btn_80_89 <int>, btn_90_99 <int>,
    ## #   old_100 <int>, population <int>, region <chr>, region_gdp <chr>, …
…
# renombramos columnas en pra1
pra1 <- pra1 %>%  rename(entity_global_bci = entity_region)
pra1 <- pra1 %>%  rename(bci_global = bci_index_region)

# Eliminamos lo que no necesitamos en la tabla 'pra1':
pra1 <- select(pra1, -matches("_region"))

# Nos quedamos con lo que necesitamos en la tabla 'region_data_bci':
region_data_bci <- select(region_data_bci, entity, code, year, bci_index)

# visualizamos la tabla pra1
print(pra1)
```

    ## # A tibble: 1,630 × 43
    ## # Groups:   code [275]
    ##    entity          code   year gdp_index imf_index uhc_index bci_index ilo_index
    ##    <chr>           <chr> <int>     <dbl>     <dbl>     <dbl>     <dbl>     <dbl>
    ##  1 Aruba           ABW    2015     5.13       28.5      40.8        45       NaN
    ##  2 Aruba           ABW    2016     1.59       28.5      40.8        45       NaN
    ##  3 Aruba           ABW    2017     1.52       27.9      40.8        45       NaN
    ##  4 Aruba           ABW    2018     0.686      27.7      40.8        45       NaN
    ##  5 Aruba           ABW    2019    -0.130      27.5      40.8        45       NaN
    ##  6 Aruba           ABW    2020    -7.57       28.0      40.8        45       NaN
    ##  7 Europe and Cen… ACS    2015     1.63       36.1     NaN          45       NaN
    ##  8 Europe and Cen… ACS    2016     1.50       35.8     NaN          45       NaN
    ##  9 Europe and Cen… ACS    2017     2.40       35.3     NaN          45       NaN
    ## 10 Europe and Cen… ACS    2018     1.79       34.9     NaN          45       NaN
    ## # ℹ 1,620 more rows
    ## # ℹ 35 more variables: phy_index <dbl>, u_1 <int>, u_5 <int>, u_15 <int>,
    ## #   u_25 <int>, btn_15_64 <int>, old_15 <int>, old_18 <int>, at_1 <int>,
    ## #   btn_1_4 <int>, btn_5_9 <int>, btn_10_14 <int>, btn_15_19 <int>,
    ## #   btn_20_29 <int>, btn_30_39 <int>, btn_40_49 <int>, btn_50_59 <int>,
    ## #   btn_60_69 <int>, btn_70_79 <int>, btn_80_89 <int>, btn_90_99 <int>,
    ## #   old_100 <int>, population <int>, region <chr>, region_gdp <chr>, …
…
# Buscamos blank
blank_rows <- (pra1$ilo_index == "" & pra1$region != "Organizaciones y otros")

# Vemos las filas donde 'ilo_index' es NA
print("NAs")
```

    ## [1] "NAs"

``` r
pra1[na_rows,]
```

    ## # A tibble: 638 × 41
    ## # Groups:   code [112]
    ##    entity      code   year gdp_index imf_index uhc_index bci_index ilo_index
    ##    <chr>       <chr> <int>     <dbl>     <dbl>     <dbl>     <dbl>     <dbl>
    ##  1 Aruba       ABW    2015    5.13        28.5      40.8        45       NaN
    ##  2 Aruba       ABW    2016    1.59        28.5      40.8        45       NaN
    ##  3 Aruba       ABW    2017    1.52        27.9      40.8        45       NaN
    ##  4 Aruba       ABW    2018    0.686       27.7      40.8        45       NaN
    ##  5 Aruba       ABW    2019   -0.130       27.5      40.8        45       NaN
    ##  6 Aruba       ABW    2020   -7.57        28.0      40.8        45       NaN
    ##  7 Afghanistan AFG    2015   -1.62        37.0      32.2        45       NaN
    ##  8 Afghanistan AFG    2016   -0.541       43.9      65.9        45       NaN
    ##  9 Afghanistan AFG    2017    0.0648      39.2      35.8        45       NaN
    ## 10 Afghanistan AFG    2018   -1.19        15.8      65.9        45       NaN
    ## # ℹ 628 more rows
    ## # ℹ 33 more variables: phy_index <dbl>, u_1 <int>, u_5 <int>, u_15 <int>,
    ## #   u_25 <int>, btn_15_64 <int>, old_15 <int>, old_18 <int>, at_1 <int>,
    ## #   btn_1_4 <int>, btn_5_9 <int>, btn_10_14 <int>, btn_15_19 <int>,
    ## #   btn_20_29 <int>, btn_30_39 <int>, btn_40_49 <int>, btn_50_59 <int>,
    ## #   btn_60_69 <int>, btn_70_79 <int>, btn_80_89 <int>, btn_90_99 <int>,
    ## #   old_100 <int>, population <int>, region <chr>, region_gdp <chr>, …
…
